<svg xmlns="http://www.w3.org/2000/svg" xmlns:xlink="http://www.w3.org/1999/xlink" width="384.849" height="92.784" viewBox="0 0 384.849 92.784">
  <defs>
    <clipPath id="clip-path">
      <rect id="Rectangle_27" data-name="Rectangle 27" width="82.533" height="65.603" transform="translate(23.446 0) rotate(20.94)" fill="none"/>
    </clipPath>
  </defs>
  <g id="logo_web" transform="translate(-109.702 -226.753)" opacity="0.97">
    <g id="text" transform="translate(264.689 246.473)">
      <g id="Group_13" data-name="Group 13" transform="translate(28.326 46.734)">
        <path id="Path_18" data-name="Path 18" d="M420.859,344.221a3.845,3.845,0,0,1,.313-1.554,4.067,4.067,0,0,1,2.126-2.134,3.839,3.839,0,0,1,1.552-.319l6.119-.012.005,2.669-6.119.012a1.322,1.322,0,0,0-.521.1,1.322,1.322,0,0,0-.705.708,1.33,1.33,0,0,0-.1.521,1.356,1.356,0,0,0,.1.526,1.31,1.31,0,0,0,.708.71,1.33,1.33,0,0,0,.521.1l2.669-.005a3.933,3.933,0,0,1,1.559.308,3.98,3.98,0,0,1,2.133,2.126,4.033,4.033,0,0,1,.007,3.111,4,4,0,0,1-.853,1.271,4.058,4.058,0,0,1-1.271.862,3.878,3.878,0,0,1-1.558.319l-5.924.012-.006-2.669,5.924-.012a1.33,1.33,0,1,0-.005-2.66l-2.669.005a3.845,3.845,0,0,1-1.554-.313,4.054,4.054,0,0,1-2.134-2.13A3.871,3.871,0,0,1,420.859,344.221Z" transform="translate(-420.859 -339.82)" fill="#fff"/>
        <path id="Path_19" data-name="Path 19" d="M484.678,348.1a5.207,5.207,0,0,1-.414,2.08,5.345,5.345,0,0,1-1.141,1.695,5.441,5.441,0,0,1-1.694,1.142,5.369,5.369,0,0,1-4.158.008,5.313,5.313,0,0,1-2.837-2.826,5.188,5.188,0,0,1-.422-2.077l-.017-8.008,2.66-.005.016,8.008a2.558,2.558,0,0,0,.212,1.032,2.676,2.676,0,0,0,1.425,1.416,2.681,2.681,0,0,0,2.075,0,2.674,2.674,0,0,0,1.419-1.422,2.549,2.549,0,0,0,.207-1.033l-.016-8.007,2.669-.005Z" transform="translate(-442.691 -339.775)" fill="#fff"/>
        <path id="Path_20" data-name="Path 20" d="M541.562,353.187l-2.66.005-.019-9.523a1.265,1.265,0,0,0-.108-.521,1.4,1.4,0,0,0-.288-.422,1.359,1.359,0,0,0-1.466-.281,1.31,1.31,0,0,0-.705.709,1.319,1.319,0,0,0-.1.521l.019,9.523-2.669.006-.019-9.523a1.32,1.32,0,0,0-.1-.521,1.322,1.322,0,0,0-.708-.705,1.333,1.333,0,0,0-.521-.1,1.319,1.319,0,0,0-.521.1,1.319,1.319,0,0,0-.807,1.229l.019,9.523-2.669.005-.019-9.523a3.926,3.926,0,0,1,.308-1.558A3.98,3.98,0,0,1,530.65,340a4.026,4.026,0,0,1,2.989-.052,1.377,1.377,0,0,0,2.469-.005,4.022,4.022,0,0,1,2.986.041,3.985,3.985,0,0,1,2.133,2.126,3.928,3.928,0,0,1,.315,1.557Z" transform="translate(-464.968 -339.603)" fill="#fff"/>
        <path id="Path_21" data-name="Path 21" d="M600.4,353.068l-2.66.005-.019-9.523a1.261,1.261,0,0,0-.108-.52,1.391,1.391,0,0,0-.288-.423,1.344,1.344,0,0,0-.424-.283,1.326,1.326,0,0,0-1.848,1.231l.019,9.523-2.669.005-.019-9.523a1.33,1.33,0,0,0-.1-.521,1.286,1.286,0,0,0-.285-.422,1.318,1.318,0,0,0-.944-.384,1.319,1.319,0,0,0-.521.1,1.319,1.319,0,0,0-.807,1.23l.019,9.523-2.669.005-.019-9.523a3.922,3.922,0,0,1,.308-1.558,3.978,3.978,0,0,1,2.126-2.134,4.112,4.112,0,0,0,5.458-.057,4.014,4.014,0,0,1,2.986.041,3.976,3.976,0,0,1,2.133,2.125,3.935,3.935,0,0,1,.315,1.557Z" transform="translate(-489.141 -339.554)" fill="#fff"/>
        <path id="Path_22" data-name="Path 22" d="M655.2,353.088l-9.142.018-.027-13.336,9.142-.018.005,2.669-6.473.013.005,2.669,4.38-.009.005,2.669-4.38.009.005,2.66,6.473-.013Z" transform="translate(-513.373 -339.635)" fill="#fff"/>
        <path id="Path_23" data-name="Path 23" d="M699.742,353l-2.669.006-.027-13.336,5.338-.011a5.174,5.174,0,0,1,1.414.188,5.306,5.306,0,0,1,1.271.537,5.451,5.451,0,0,1,1.08.835,5.392,5.392,0,0,1,.839,1.082,5.458,5.458,0,0,1,.542,1.273,5.323,5.323,0,0,1,.024,2.752,5.464,5.464,0,0,1-.491,1.238,5.184,5.184,0,0,1-.783,1.08,5.333,5.333,0,0,1-1.04.858l1.486,3.485-2.837.005-1.168-2.685-2.985.025Zm-.021-10.667.011,5.338,2.669-.005a2.567,2.567,0,0,0,1.032-.212,2.669,2.669,0,0,0,1.415-1.426,2.671,2.671,0,0,0,0-2.074,2.665,2.665,0,0,0-.573-.85,2.7,2.7,0,0,0-.848-.57,2.57,2.57,0,0,0-1.033-.207Z" transform="translate(-534.335 -339.598)" fill="#fff"/>
      </g>
      <g id="Group_14" data-name="Group 14">
        <path id="Path_24" data-name="Path 24" d="M411.088,279.985a18.737,18.737,0,0,1-.674,5.078,19.532,19.532,0,0,1-1.916,4.576,18.969,18.969,0,0,1-2.989,3.894,19.525,19.525,0,0,1-3.869,3.018,18.974,18.974,0,0,1-9.656,2.642,18.726,18.726,0,0,1-5.078-.675,19.288,19.288,0,0,1-13.433-13.38A19.062,19.062,0,0,1,375.38,270.4a19.5,19.5,0,0,1,3-3.881,18.94,18.94,0,0,1,3.882-3,19.555,19.555,0,0,1,4.568-1.934A19.219,19.219,0,0,1,397,261.556a19.131,19.131,0,0,1,13.4,13.342A18.882,18.882,0,0,1,411.088,279.985Zm-7.362.015a11.459,11.459,0,0,0-.939-4.583,11.736,11.736,0,0,0-6.278-6.252,11.8,11.8,0,0,0-9.183.019,12.082,12.082,0,0,0-3.741,2.526,11.774,11.774,0,0,0-2.524,3.751,11.456,11.456,0,0,0-.921,4.587,11.28,11.28,0,0,0,.939,4.558,11.937,11.937,0,0,0,6.29,6.252,11.8,11.8,0,0,0,9.183-.018,11.81,11.81,0,0,0,3.742-2.539,12.156,12.156,0,0,0,2.51-3.738A11.266,11.266,0,0,0,403.726,280Z" transform="translate(-372.778 -260.496)" fill="#fff"/>
        <path id="Path_25" data-name="Path 25" d="M475.691,298.532l-7.93.016L453.426,274.19l.049,24.387-7.414.015-.075-37.044,7.931-.016,14.335,24.383L468.2,261.5l7.414-.015Z" transform="translate(-402.857 -260.745)" fill="#fff"/>
        <path id="Path_26" data-name="Path 26" d="M521.5,298.44l-7.388.015-.06-29.63-11.134.022-.015-7.414,29.631-.06.015,7.414-11.108.022Z" transform="translate(-426.241 -260.698)" fill="#fff"/>
        <path id="Path_27" data-name="Path 27" d="M587,298.329l-7.414.015-.015-7.414-14.828.03.015,7.414-7.388.015-.045-22.216a14.436,14.436,0,0,1,1.151-5.776,15.1,15.1,0,0,1,3.154-4.721,14.84,14.84,0,0,1,4.7-3.187,14.923,14.923,0,0,1,11.548-.024,14.872,14.872,0,0,1,7.907,7.876,14.441,14.441,0,0,1,1.174,5.772Zm-7.444-14.787-.015-7.414a7.208,7.208,0,0,0-.587-2.879,7.4,7.4,0,0,0-3.96-3.945,7.434,7.434,0,0,0-5.762.012,7.4,7.4,0,0,0-3.943,3.96,7.219,7.219,0,0,0-.576,2.882l.015,7.414Z" transform="translate(-448.602 -260.674)" fill="#fff"/>
        <path id="Path_28" data-name="Path 28" d="M625.976,298.25l-7.414.015-.075-37.045,14.828-.029a14.453,14.453,0,0,1,3.928.521,14.792,14.792,0,0,1,3.53,1.491,14.946,14.946,0,0,1,6.838,8.86,14.793,14.793,0,0,1,.067,7.646,15.233,15.233,0,0,1-1.363,3.439,14.478,14.478,0,0,1-2.176,3,14.836,14.836,0,0,1-2.889,2.382l4.127,9.679-7.879.016-3.244-7.459-8.292.068Zm-.059-29.63.03,14.828,7.414-.015a7.147,7.147,0,0,0,2.866-.587,7.434,7.434,0,0,0,3.931-3.96,7.418,7.418,0,0,0-.012-5.761,7.435,7.435,0,0,0-1.593-2.36,7.511,7.511,0,0,0-2.354-1.584,7.145,7.145,0,0,0-2.868-.576Z" transform="translate(-473.732 -260.623)" fill="#fff"/>
        <path id="Path_29" data-name="Path 29" d="M684.515,298.142l-7.414.015-.075-37.045,7.414-.015Z" transform="translate(-497.783 -260.585)" fill="#fff"/>
        <path id="Path_30" data-name="Path 30" d="M736.228,279.33a18.737,18.737,0,0,1-.673,5.078,19.582,19.582,0,0,1-1.916,4.576,18.973,18.973,0,0,1-2.989,3.894,19.507,19.507,0,0,1-3.869,3.018,19.127,19.127,0,0,1-14.734,1.967,19.284,19.284,0,0,1-13.433-13.38,19.185,19.185,0,0,1-.021-10.165,18.922,18.922,0,0,1,1.927-4.576,19.5,19.5,0,0,1,3-3.881,18.938,18.938,0,0,1,3.882-3,19.555,19.555,0,0,1,4.568-1.934,19.219,19.219,0,0,1,10.166-.021,19.126,19.126,0,0,1,13.4,13.342A18.882,18.882,0,0,1,736.228,279.33Zm-7.362.015a11.45,11.45,0,0,0-.939-4.583,11.738,11.738,0,0,0-6.277-6.252,11.8,11.8,0,0,0-9.183.019,12.077,12.077,0,0,0-3.74,2.526,11.783,11.783,0,0,0-2.524,3.751,11.467,11.467,0,0,0-.921,4.587,11.282,11.282,0,0,0,.939,4.558,11.937,11.937,0,0,0,6.29,6.252,11.8,11.8,0,0,0,9.183-.018,11.814,11.814,0,0,0,3.742-2.539,12.156,12.156,0,0,0,2.51-3.738A11.264,11.264,0,0,0,728.866,279.345Z" transform="translate(-506.367 -260.227)" fill="#fff"/>
      </g>
    </g>
    <g id="icon" transform="translate(109.702 226.753)">
      <g id="s" transform="translate(67.016 8.83)">
        <path id="s-2" data-name="s" d="M269.514,320.493l-42.828.086a3.121,3.121,0,0,1-3.128-3.115l-.028-13.786a3.121,3.121,0,0,1,3.115-3.128l42.829-.087a5.029,5.029,0,0,0,5-5.017,2.746,2.746,0,0,0-1.478-2.8,8.585,8.585,0,0,0-3.536-.657l-20.913.042a24.24,24.24,0,0,1-9.8-1.968,25.179,25.179,0,0,1-7.964-5.4,25.433,25.433,0,0,1-5.356-7.979,25.558,25.558,0,0,1-.039-19.588,24.821,24.821,0,0,1,13.266-13.318,24.64,24.64,0,0,1,9.789-1.971l37.6-.076a3.121,3.121,0,0,1,3.128,3.115l.028,13.788a3.121,3.121,0,0,1-3.115,3.128l-37.6.076a5.028,5.028,0,0,0-5,5.017,5.022,5.022,0,0,0,1.48,3.64,4.756,4.756,0,0,0,3.538,1.5l20.913-.042a27.211,27.211,0,0,1,9.724,1.711,24.629,24.629,0,0,1,7.963,4.808,22.749,22.749,0,0,1,5.389,7.428A22.515,22.515,0,0,1,294.5,295.4a23.958,23.958,0,0,1-1.969,9.761,26.09,26.09,0,0,1-5.359,7.963,24.773,24.773,0,0,1-17.658,7.364Z" transform="translate(-223.456 -241.74)" fill="#1c653d"/>
        <path id="s-3" data-name="s" d="M226.686,320.579a3.121,3.121,0,0,1-3.128-3.115l-.028-13.786a3.121,3.121,0,0,1,3.115-3.128l42.829-.087a5.029,5.029,0,0,0,5-5.017,2.746,2.746,0,0,0-1.478-2.8,8.585,8.585,0,0,0-3.536-.657l-20.913.042a24.24,24.24,0,0,1-9.8-1.968,25.179,25.179,0,0,1-7.964-5.4,25.433,25.433,0,0,1-5.356-7.979,25.558,25.558,0,0,1-.039-19.588,24.821,24.821,0,0,1,13.266-13.318,24.64,24.64,0,0,1,9.789-1.971l37.6-.076a3.121,3.121,0,0,1,3.128,3.115l.028,13.788a3.121,3.121,0,0,1-3.115,3.128l-37.6.076a5.028,5.028,0,0,0-5,5.017,5.022,5.022,0,0,0,1.48,3.64,4.756,4.756,0,0,0,3.538,1.5l20.913-.042a27.211,27.211,0,0,1,9.724,1.711,24.629,24.629,0,0,1,7.963,4.808,22.749,22.749,0,0,1,5.389,7.428A22.515,22.515,0,0,1,294.5,295.4" transform="translate(-223.456 -241.74)" fill="#45a735"/>
      </g>
      <g id="O">
        <path id="o-2" data-name="o" d="M169.119,268.884v.031c-36.12,1-36.554,34.025-36.554,34.025.038,18.772,16.517,33.947,36.807,33.906s36.7-15.282,36.667-34.054S189.4,268.843,169.119,268.884Zm.25,48.181a14.729,14.729,0,0,1-14.955-14.49s-.177-13.565,14.956-14.47l-.156.071c8.217.014,15.032,6.336,15.048,14.34A14.726,14.726,0,0,1,169.369,317.065Z" transform="translate(-119.096 -244.063)" fill="#a3531b"/>
        <g id="O-3" data-name="O">
          <g id="Group_15" data-name="Group 15" clip-path="url(#clip-path)">
            <path id="o-4" data-name="o" d="M169.119,268.884v.031c-36.12,1-36.554,34.025-36.554,34.025.038,18.772,16.517,33.947,36.807,33.906s36.7-15.282,36.667-34.054S189.4,268.843,169.119,268.884Zm.25,48.181a14.729,14.729,0,0,1-14.955-14.49s-.177-13.565,14.956-14.47l-.156.071c8.217.014,15.032,6.336,15.048,14.34A14.726,14.726,0,0,1,169.369,317.065Z" transform="translate(-119.096 -244.063)" fill="#f18a0c"/>
          </g>
        </g>
      </g>
    </g>
  </g>
</svg>
